spatial examples
…
crime

The crime dataset contains crime reports for Houston from January-August 2010, geocoded with Google Maps.

tibble(crime)

## # A tibble: 86,314 x 1
##    crime$time          $date $hour $premise $offense $beat $block $street
##    <dttm>              <chr> <int> <chr>    <fct>    <chr> <chr>  <chr>  
##  1 2010-01-01 01:00:00 1/1/…     0 18A      murder   15E30 9600-… marlive
##  2 2010-01-01 01:00:00 1/1/…     0 13R      robbery  13D10 4700-… teleph…
##  3 2010-01-01 01:00:00 1/1/…     0 20R      aggrava… 16E20 5000-… wickvi…
##  4 2010-01-01 01:00:00 1/1/…     0 20R      aggrava… 2A30  1000-… ashland
##  5 2010-01-01 01:00:00 1/1/…     0 20A      aggrava… 14D20 8300-… canyon 
##  6 2010-01-01 01:00:00 1/1/…     0 20R      burglary 18F60 9300-… rowan  
##  7 2010-01-01 01:00:00 1/1/…     0 20A      burglary 10H60 2500-… southm…
##  8 2010-01-01 01:00:00 1/1/…     0 20R      burglary 13D10 6300-… rupley 
##  9 2010-01-01 01:00:00 1/1/…     0 20A      burglary 3B10  5000-… georgi 
## 10 2010-01-01 01:00:00 1/1/…     0 20P      burglary 20G20 10700… briar …
## # … with 86,304 more rows, and 9 more variables: $type <chr>,
## #   $suffix <chr>, $number <int>, $month <ord>, $day <ord>,
## #   $location <chr>, $address <chr>, $lon <dbl>, $lat <dbl>
…
